…
  #clean columns` names
  janitor::clean_names() %>% 
  
  #delete the rows that do not include dumpster-specific data
  drop_na(dumpster) %>% 
  
  #round the number of sports balls to the nearest integer and converts the result to an integer variable
  mutate(sports_balls = as.integer(round(sports_balls, 0)))
## New names:
## * `` -> ...15
  
# display the data frame
df_trash_wheel
## # A tibble: 285 x 14
##   dumpster month  year date                weight_tons volume_cubic_ya…
##      <dbl> <chr> <dbl> <dttm>                    <dbl>            <dbl>
## 1        1 May    2014 2014-05-16 00:00:00        4.31               18
## 2        2 May    2014 2014-05-16 00:00:00        2.74               13
## 3        3 May    2014 2014-05-16 00:00:00        3.45               15
## # … with 282 more rows, and 8 more variables: plastic_bottles <dbl>,
## #   polystyrene <dbl>, cigarette_butts <dbl>, glass_bottles <dbl>,
## #   grocery_bags <dbl>, chip_bags <dbl>, sports_balls <int>,
## #   homes_powered <dbl>
```
…
  
# display the data frame
df_pols_month
## # A tibble: 822 x 9
##   year  month    gov_gop sen_gop rep_gop gov_dem sen_dem rep_dem president
##   <chr> <chr>      <dbl>   <dbl>   <dbl>   <dbl>   <dbl>   <dbl> <chr>    
## 1 1947  January       23      51     253      23      45     198 dem      
## 2 1947  February      23      51     253      23      45     198 dem      
## 3 1947  March         23      51     253      23      45     198 dem      
## # … with 819 more rows
df_unemployment 
## # A tibble: 816 x 3
##   year  month    month_value
##   <chr> <chr>          <dbl>
## 1 1948  January          3.4
## 2 1948  February         3.8
## 3 1948  March            4  
## # … with 813 more rows
df_snp
## # A tibble: 787 x 3
##   year  month    close
##   <chr> <chr>    <dbl>
## 1 1950  January   17.0
## 2 1950  October   19.5
## 3 1950  November  19.5
## # … with 784 more rows
```

``` r
# read the data frame from excel file on sheet named "Mr. Tra"

df_merge = 
  left_join(df_pols_month, df_snp, by = c("year", "month")) %>% 
  left_join(., df_unemployment, by = c("year", "month"))

df_merge
## # A tibble: 822 x 11
##   year  month gov_gop sen_gop rep_gop gov_dem sen_dem rep_dem president
##   <chr> <chr>   <dbl>   <dbl>   <dbl>   <dbl>   <dbl>   <dbl> <chr>    
## 1 1947  Janu…      23      51     253      23      45     198 dem      
## 2 1947  Febr…      23      51     253      23      45     198 dem      
## 3 1947  March      23      51     253      23      45     198 dem      
## # … with 819 more rows, and 2 more variables: close <dbl>,
## #   month_value <dbl>
```
…
plot_data = 
  mutate(df_popular_baby_names, count = as.integer(count), rank = as.integer(rank)) %>% 
  filter(year_of_birth == 2016, ethnicity == "WHITE NON HISPANIC", gender == "MALE") %>% 
  select(count, rank, childs_first_name) 

plot_data
## # A tibble: 364 x 3
##   count  rank childs_first_name
##   <int> <int> <chr>            
## 1   261     1 Joseph           
## 2   260     2 Michael          
## 3   255     3 David            
## # … with 361 more rows
…
